<svg width="136" height="41" viewBox="0 0 136 41" fill="none" xmlns="http://www.w3.org/2000/svg">
<path d="M42.312 16.48H43.776L47.016 25H45.312L44.52 22.876H41.544L40.764 25H39.06L42.312 16.48ZM44.22 21.712L43.044 18.364L41.82 21.712H44.22ZM47.9505 25V16.48H51.5625C51.9545 16.48 52.3145 16.564 52.6425 16.732C52.9785 16.892 53.2665 17.108 53.5065 17.38C53.7465 17.644 53.9345 17.948 54.0705 18.292C54.2065 18.628 54.2745 18.968 54.2745 19.312C54.2745 19.672 54.2105 20.024 54.0825 20.368C53.9545 20.704 53.7745 21.004 53.5425 21.268C53.3105 21.532 53.0305 21.744 52.7025 21.904C52.3745 22.064 52.0145 22.144 51.6225 22.144H49.6065V25H47.9505ZM49.6065 20.692H51.5265C51.8305 20.692 52.0825 20.568 52.2825 20.32C52.4905 20.072 52.5945 19.736 52.5945 19.312C52.5945 19.096 52.5625 18.904 52.4985 18.736C52.4345 18.56 52.3505 18.412 52.2465 18.292C52.1425 18.172 52.0185 18.084 51.8745 18.028C51.7385 17.964 51.5985 17.932 51.4545 17.932H49.6065V20.692ZM55.4271 25V16.48H59.0391C59.4311 16.48 59.7911 16.564 60.1191 16.732C60.4551 16.892 60.7431 17.108 60.9831 17.38C61.2231 17.644 61.4111 17.948 61.5471 18.292C61.6831 18.628 61.7511 18.968 61.7511 19.312C61.7511 19.672 61.6871 20.024 61.5591 20.368C61.4311 20.704 61.2511 21.004 61.0191 21.268C60.7871 21.532 60.5071 21.744 60.1791 21.904C59.8511 22.064 59.4911 22.144 59.0991 22.144H57.0831V25H55.4271ZM57.0831 20.692H59.0031C59.3071 20.692 59.5591 20.568 59.7591 20.32C59.9671 20.072 60.0711 19.736 60.0711 19.312C60.0711 19.096 60.0391 18.904 59.9751 18.736C59.9111 18.56 59.8271 18.412 59.7231 18.292C59.6191 18.172 59.4951 18.084 59.3511 18.028C59.2151 17.964 59.0751 17.932 58.9311 17.932H57.0831V20.692ZM70.5343 18.712C70.4783 18.656 70.3743 18.58 70.2223 18.484C70.0783 18.388 69.8983 18.296 69.6823 18.208C69.4743 18.112 69.2463 18.032 68.9983 17.968C68.7503 17.904 68.4983 17.872 68.2423 17.872C67.7863 17.872 67.4463 17.956 67.2223 18.124C66.9983 18.292 66.8863 18.528 66.8863 18.832C66.8863 19.008 66.9263 19.156 67.0063 19.276C67.0943 19.388 67.2183 19.488 67.3783 19.576C67.5383 19.664 67.7383 19.744 67.9783 19.816C68.2263 19.888 68.5103 19.964 68.8303 20.044C69.2463 20.156 69.6223 20.276 69.9583 20.404C70.3023 20.532 70.5903 20.692 70.8223 20.884C71.0623 21.076 71.2463 21.308 71.3743 21.58C71.5023 21.844 71.5663 22.172 71.5663 22.564C71.5663 23.02 71.4783 23.412 71.3023 23.74C71.1343 24.06 70.9023 24.32 70.6063 24.52C70.3183 24.72 69.9823 24.868 69.5983 24.964C69.2223 25.052 68.8263 25.096 68.4103 25.096C67.7703 25.096 67.1383 25 66.5143 24.808C65.8903 24.616 65.3303 24.344 64.8343 23.992L65.5663 22.564C65.6383 22.636 65.7663 22.732 65.9503 22.852C66.1423 22.964 66.3663 23.08 66.6223 23.2C66.8783 23.312 67.1623 23.408 67.4743 23.488C67.7863 23.568 68.1063 23.608 68.4343 23.608C69.3463 23.608 69.8023 23.316 69.8023 22.732C69.8023 22.548 69.7503 22.392 69.6463 22.264C69.5423 22.136 69.3943 22.024 69.2023 21.928C69.0103 21.832 68.7783 21.744 68.5063 21.664C68.2343 21.584 67.9303 21.496 67.5943 21.4C67.1863 21.288 66.8303 21.168 66.5263 21.04C66.2303 20.904 65.9823 20.748 65.7823 20.572C65.5823 20.388 65.4303 20.18 65.3263 19.948C65.2303 19.708 65.1823 19.424 65.1823 19.096C65.1823 18.664 65.2623 18.28 65.4223 17.944C65.5823 17.608 65.8023 17.328 66.0823 17.104C66.3703 16.88 66.7023 16.712 67.0783 16.6C67.4543 16.48 67.8583 16.42 68.2903 16.42C68.8903 16.42 69.4423 16.516 69.9463 16.708C70.4503 16.892 70.8903 17.112 71.2663 17.368L70.5343 18.712ZM79.1311 17.932H76.4071V25H74.7631V17.932H72.0391V16.48H79.1311V17.932ZM83.4263 25.06C82.8023 25.06 82.2343 24.94 81.7223 24.7C81.2183 24.452 80.7823 24.128 80.4143 23.728C80.0543 23.32 79.7743 22.856 79.5743 22.336C79.3743 21.816 79.2743 21.284 79.2743 20.74C79.2743 20.172 79.3783 19.628 79.5863 19.108C79.8023 18.588 80.0943 18.128 80.4623 17.728C80.8383 17.328 81.2823 17.012 81.7943 16.78C82.3063 16.54 82.8623 16.42 83.4623 16.42C84.0783 16.42 84.6383 16.548 85.1423 16.804C85.6543 17.052 86.0903 17.38 86.4503 17.788C86.8103 18.196 87.0903 18.66 87.2903 19.18C87.4903 19.7 87.5903 20.228 87.5903 20.764C87.5903 21.332 87.4863 21.876 87.2783 22.396C87.0703 22.908 86.7823 23.364 86.4143 23.764C86.0463 24.156 85.6063 24.472 85.0943 24.712C84.5823 24.944 84.0263 25.06 83.4263 25.06ZM80.9543 20.74C80.9543 21.108 81.0103 21.464 81.1223 21.808C81.2343 22.152 81.3943 22.456 81.6023 22.72C81.8183 22.984 82.0783 23.196 82.3823 23.356C82.6943 23.516 83.0463 23.596 83.4383 23.596C83.8383 23.596 84.1903 23.516 84.4943 23.356C84.8063 23.188 85.0663 22.968 85.2743 22.696C85.4903 22.424 85.6503 22.12 85.7543 21.784C85.8663 21.44 85.9223 21.092 85.9223 20.74C85.9223 20.372 85.8623 20.016 85.7423 19.672C85.6303 19.328 85.4663 19.024 85.2503 18.76C85.0423 18.496 84.7823 18.288 84.4703 18.136C84.1663 17.976 83.8223 17.896 83.4383 17.896C83.0383 17.896 82.6823 17.98 82.3703 18.148C82.0583 18.308 81.7983 18.524 81.5903 18.796C81.3823 19.06 81.2223 19.364 81.1103 19.708C81.0063 20.044 80.9543 20.388 80.9543 20.74ZM88.8607 25V16.48H92.6287C93.0207 16.48 93.3807 16.564 93.7087 16.732C94.0447 16.892 94.3327 17.108 94.5727 17.38C94.8127 17.644 95.0007 17.948 95.1367 18.292C95.2727 18.628 95.3407 18.968 95.3407 19.312C95.3407 19.864 95.2007 20.368 94.9207 20.824C94.6487 21.272 94.2767 21.596 93.8047 21.796L95.7487 25H93.8887L92.1487 22.144H90.5167V25H88.8607ZM90.5167 20.692H92.5927C92.7447 20.692 92.8847 20.656 93.0127 20.584C93.1487 20.512 93.2647 20.416 93.3607 20.296C93.4567 20.168 93.5327 20.02 93.5887 19.852C93.6447 19.684 93.6727 19.504 93.6727 19.312C93.6727 19.112 93.6407 18.928 93.5767 18.76C93.5127 18.592 93.4247 18.448 93.3127 18.328C93.2087 18.2 93.0847 18.104 92.9407 18.04C92.8047 17.968 92.6647 17.932 92.5207 17.932H90.5167V20.692ZM102.757 23.548V25H96.8411V16.48H102.649V17.932H98.4971V19.984H102.085V21.328H98.4971V23.548H102.757Z" fill="#212324"/>
<rect x="0.5" y="0.5" width="135" height="40" rx="4.5" stroke="#212324"/>
<path d="M26.7045 19.6591C26.7166 18.6488 26.9669 17.6583 27.4321 16.7795C27.8972 15.9008 28.5621 15.1626 29.3648 14.6334C28.8548 13.8525 28.1821 13.2098 27.4 12.7565C26.6178 12.3031 25.7479 12.0515 24.8592 12.0217C22.9636 11.8084 21.1258 13.238 20.1598 13.238C19.1751 13.238 17.6878 12.0429 16.0862 12.0782C15.0502 12.1141 14.0406 12.4371 13.1557 13.0158C12.2708 13.5944 11.5408 14.409 11.0368 15.3801C8.85349 19.4331 10.482 25.3896 12.5734 28.6657C13.6198 30.2699 14.8427 32.0619 16.4428 31.9984C18.0086 31.9287 18.5935 30.9278 20.4836 30.9278C22.3561 30.9278 22.9048 31.9984 24.5374 31.958C26.2176 31.9287 27.2762 30.3466 28.2859 28.7272C29.0377 27.5841 29.6162 26.3208 30 24.984C29.0238 24.5413 28.1908 23.8003 27.6048 22.8534C27.0188 21.9065 26.7056 20.7955 26.7045 19.6591Z" fill="#212324"/>
<path d="M23.7101 10.171C24.6375 9.00693 25.0944 7.51067 24.9837 6C23.5669 6.1556 22.2581 6.86367 21.3182 7.98312C20.8586 8.52999 20.5067 9.16622 20.2824 9.85542C20.0581 10.5446 19.966 11.2733 20.0112 11.9997C20.7199 12.0074 21.421 11.8468 22.0617 11.53C22.7024 11.2132 23.266 10.7486 23.7101 10.171Z" fill="#212324"/>
</svg>
