<svg width="122" height="121" viewBox="0 0 122 121" fill="none" xmlns="http://www.w3.org/2000/svg">
<path d="M98.7483 13.1387C88.1641 5.1527 74.7782 1 61.081 1C44.8933 1 29.017 6.74991 18.1215 17.6108C6.60341 28.7912 1 44.7632 1 59.7768C1 73.5127 5.6695 87.568 15.6311 98.7483" stroke="#7AD1DD"/>
<path d="M23.2517 106.477C33.8359 114.463 47.2219 118.616 60.9191 118.616C77.1067 118.616 92.983 112.866 103.879 102.005C115.397 90.5053 121 74.8528 121 60.1586C121 46.4227 116.331 32.0479 106.68 20.8675" stroke="#7AD1DD"/>
</svg>
